﻿{
  "ProviderId": "Microsoft.VisualStudio.ConnectedService.Wcf",
  "Version": "15.0.40203.910",
  "ExtendedData": {
    "inputs": [
      "https://ezcloudadmindemo.vnpt-invoice.com.vn/businessservice.asmx"
    ],
    "collectionTypes": [
      "System.Array",
      "System.Collections.Generic.Dictionary`2"
    ],
    "namespaceMappings": [
      "*, VnptBusinessService"
    ],
    "targetFramework": "netcoreapp3.1",
    "typeReuseMode": "All"
  }
}